[gd_scene load_steps=2 format=2]

[ext_resource path="res://Backend/WinText/YouWin.png" type="Texture" id=1]

[node name="YouWin" type="Sprite"]
z_index = 100
texture = ExtResource( 1 )
centered = false
